<svg width="15" height="12" viewBox="0 0 15 12" fill="none" xmlns="http://www.w3.org/2000/svg">
<path d="M14.5 1.322C13.9825 1.54922 13.4301 1.7007 12.8496 1.76955C13.4441 1.4184 13.8986 0.867563 14.1084 0.206563C13.5559 0.530178 12.9406 0.764282 12.2832 0.895105C11.7587 0.344271 11.0175 0 10.1853 0C8.5979 0 7.31818 1.26692 7.31818 2.82302C7.31818 3.04336 7.34615 3.2568 7.3951 3.47025C5.01049 3.3532 2.8986 2.23088 1.47902 0.516407C1.23427 0.936417 1.08741 1.4184 1.08741 1.9348C1.08741 2.91253 1.59091 3.7801 2.36713 4.28962C1.8986 4.27585 1.45105 4.14502 1.06643 3.93846C1.06643 3.95223 1.06643 3.95912 1.06643 3.97289C1.06643 5.34309 2.05245 6.48607 3.36713 6.74083C3.12937 6.8028 2.87063 6.83722 2.61189 6.83722C2.43007 6.83722 2.24825 6.81657 2.07343 6.78903C2.43706 7.91135 3.5 8.73072 4.75175 8.75137C3.77273 9.50877 2.53496 9.96321 1.18531 9.96321C0.954545 9.96321 0.723776 9.94944 0.5 9.9219C1.77273 10.7206 3.27622 11.1888 4.8986 11.1888C10.1783 11.1888 13.0594 6.88542 13.0594 3.15352C13.0594 3.02959 13.0594 2.91253 13.0524 2.7886C13.6259 2.38924 14.1154 1.89349 14.5 1.322Z" fill="white"/>
</svg>
