<svg width="24" height="24" viewBox="0 0 24 24" fill="none" xmlns="http://www.w3.org/2000/svg">
<path fill-rule="evenodd" clip-rule="evenodd" d="M12 4.22222C7.70445 4.22222 4.22222 7.70445 4.22222 12C4.22222 16.2955 7.70445 19.7778 12 19.7778C16.2955 19.7778 19.7778 16.2955 19.7778 12C19.7778 7.70445 16.2955 4.22222 12 4.22222ZM2 12C2 6.47715 6.47715 2 12 2C17.5228 2 22 6.47715 22 12C22 17.5228 17.5228 22 12 22C6.47715 22 2 17.5228 2 12Z" fill="#001A41"/>
<path d="M13 8C13 8.55228 12.5523 9 12 9C11.4477 9 11 8.55228 11 8C11 7.44772 11.4477 7 12 7C12.5523 7 13 7.44772 13 8Z" fill="#001A41"/>
<path fill-rule="evenodd" clip-rule="evenodd" d="M10 11C10 10.4477 10.4477 10 11 10H12C12.5523 10 13 10.4477 13 11L13 15C13.5523 15 14 15.4477 14 16C14 16.5523 13.5523 17 13 17H12C11.4477 17 11 16.5523 11 16V12C10.4477 12 10 11.5523 10 11Z" fill="#001A41"/>
</svg>
