<svg width="14" height="14" viewBox="0 0 14 14" fill="none" xmlns="http://www.w3.org/2000/svg">
<path d="M13.6784 6.80159C13.6784 6.34133 13.6419 5.87858 13.5641 5.42578H7.32178V8.0331H10.8964C10.7481 8.87401 10.2715 9.6179 9.57358 10.0906V11.7824H11.7062C12.9586 10.6031 13.6784 8.86157 13.6784 6.80159Z" fill="white"/>
<path d="M7.2387 13.3336C9.03863 13.3336 10.5565 12.7392 11.6625 11.7131L9.5119 10.0358C8.91356 10.4453 8.14111 10.6771 7.24115 10.6771C5.50007 10.6771 4.02384 9.49567 3.49416 7.90723H1.2749V9.63626C2.40783 11.903 4.71536 13.3336 7.2387 13.3336Z" fill="white"/>
<path d="M3.44574 8.03293C3.16437 7.19671 3.16437 6.29121 3.44574 5.45499V3.7207H1.21453C0.261824 5.62323 0.261824 7.86469 1.21453 9.76722L3.44574 8.03293Z" fill="white"/>
<path d="M7.21486 2.65547C8.16252 2.64068 9.07842 3.0006 9.76474 3.66127L11.6625 1.74581C10.4608 0.606891 8.86593 -0.0192695 7.21486 0.000452114C4.70161 0.000452114 2.4033 1.43027 1.2749 3.69825L3.48285 5.42636C4.00797 3.8363 5.48074 2.65547 7.21486 2.65547Z" fill="white"/>
</svg>
