<svg width="13" height="14" viewBox="0 0 13 14" fill="none" xmlns="http://www.w3.org/2000/svg">
<path fill-rule="evenodd" clip-rule="evenodd" d="M9.43161 0C9.43161 0 9.63229 1.14079 8.66997 2.23789C7.64479 3.41088 6.47937 3.21998 6.47937 3.21998C6.47937 3.21998 6.25934 2.29769 7.12011 1.21899C8.08726 0.00689995 9.43161 0 9.43161 0ZM12.1059 4.76783C12.1059 4.76783 10.5149 5.54063 10.5149 7.41972C10.5149 9.53802 12.5 10.2671 12.5 10.2671C12.5 10.2671 11.1121 13.9793 9.24068 13.9793C8.81589 13.9793 8.43821 13.8449 8.05562 13.7087C7.66295 13.5689 7.26511 13.4273 6.80586 13.4273C6.2939 13.4273 5.78417 13.6033 5.32978 13.7601C4.96441 13.8862 4.63482 14 4.36863 14C2.65918 14 0.5 10.4787 0.5 7.64972C0.5 4.86673 2.32793 3.40624 4.03979 3.40624C4.68897 3.40624 5.2524 3.61286 5.7244 3.78594C6.06459 3.9107 6.35728 4.01803 6.60034 4.01803C6.79542 4.01803 7.05578 3.91819 7.37255 3.79671C7.86457 3.60802 8.49271 3.36714 9.22376 3.36714C11.2911 3.36714 12.1059 4.76783 12.1059 4.76783Z" fill="white"/>
</svg>
