<svg width="24" height="24" viewBox="0 0 24 24" fill="none" xmlns="http://www.w3.org/2000/svg">
<path fill-rule="evenodd" clip-rule="evenodd" d="M11.9809 16.9986C9.16875 17.0524 6.24223 15.5223 4.15035 12C6.24223 8.4777 9.16874 6.94765 11.9809 7.00139C14.7996 7.05526 17.7331 8.70417 19.8298 12C17.7331 15.2958 14.7996 16.9448 11.9809 16.9986ZM12.0191 5.00175C8.20551 4.92887 4.5166 7.1281 2.12196 11.5214C1.95935 11.8197 1.95935 12.1802 2.12196 12.4786C4.5166 16.8719 8.2055 19.0712 12.0191 18.9983C15.8106 18.9258 19.4755 16.6116 21.8645 12.5026C22.0452 12.1919 22.0452 11.8081 21.8645 11.4974C19.4755 7.38841 15.8106 5.07421 12.0191 5.00175ZM12 16C14.2091 16 16 14.2091 16 12C16 9.79086 14.2091 8 12 8C9.79086 8 8 9.79086 8 12C8 14.2091 9.79086 16 12 16Z" fill="#001A41"/>
</svg>
